[{
  "id": 1,
  "fecha": "12/1/2019",
  "importe": 1,
  "latitud": "51.22999",
  "longitud": "-101.3565",
  "ciudad": "Roblin"
}, {
  "id": 2,
  "fecha": "8/14/2019",
  "importe": 48,
  "latitud": 51.4139633,
  "longitud": -2.2685462,
  "ciudad": "Ashley"
}, {
  "id": 3,
  "fecha": "8/11/2019",
  "importe": 63,
  "latitud": 34.620202,
  "longitud": 112.453926,
  "ciudad": "Luoyang"
}, {
  "id": 4,
  "fecha": "9/26/2019",
  "importe": 55,
  "latitud": 41.5318938,
  "longitud": -8.6939907,
  "ciudad": "Perelhal"
}, {
  "id": 5,
  "fecha": "3/12/2020",
  "importe": 85,
  "latitud": 25.075889,
  "longitud": 111.655839,
  "ciudad": "Dianzi"
}, {
  "id": 6,
  "fecha": "2/19/2020",
  "importe": 99,
  "latitud": 54.2388118,
  "longitud": 17.2312846,
  "ciudad": "Kołczygłowy"
}, {
  "id": 7,
  "fecha": "11/27/2019",
  "importe": 49,
  "latitud": -6.9620686,
  "longitud": 108.4854717,
  "ciudad": "Cigintung"
}, {
  "id": 8,
  "fecha": "11/14/2019",
  "importe": 21,
  "latitud": -26.7376205,
  "longitud": -49.1743626,
  "ciudad": "Pomerode"
}, {
  "id": 9,
  "fecha": "6/17/2019",
  "importe": 50,
  "latitud": 23.15998,
  "longitud": 113.327132,
  "ciudad": "Yantang"
}, {
  "id": 10,
  "fecha": "8/29/2019",
  "importe": 91,
  "latitud": 41.5565343,
  "longitud": 24.0428542,
  "ciudad": "Satovcha"
}]
